<svg width="56" height="56" viewBox="0 0 56 56" fill="none" xmlns="http://www.w3.org/2000/svg">
<path d="M27.9692 0.614014C12.9056 0.614014 0.66098 12.861 0.66098 27.9273C0.66098 42.9937 12.9056 55.2406 27.9692 55.2406C43.0328 55.2406 55.2774 42.9937 55.2774 27.9273C55.2774 12.861 43.0328 0.614014 27.9692 0.614014ZM27.9692 45.8131C18.103 45.8131 10.0867 37.7954 10.0867 27.9273C10.0867 18.0593 18.103 10.0415 27.9692 10.0415C37.8354 10.0415 45.8517 18.0593 45.8517 27.9273C45.9397 37.7073 37.8354 45.8131 27.9692 45.8131Z" fill="white"/>
<path d="M1.16098 27.9273C1.16098 13.137 13.1819 1.11401 27.9692 1.11401C42.7565 1.11401 54.7774 13.137 54.7774 27.9273C54.7774 42.7176 42.7565 54.7406 27.9692 54.7406C13.1819 54.7406 1.16098 42.7176 1.16098 27.9273ZM9.58673 27.9273C9.58673 38.0714 17.8268 46.3131 27.9692 46.3131C38.1084 46.3131 46.4411 37.986 46.3517 27.9249C46.3504 17.7819 38.1108 9.54151 27.9692 9.54151C17.8268 9.54151 9.58673 17.7832 9.58673 27.9273Z" stroke="black" stroke-opacity="0.2"/>
</svg>
