<svg width="279" height="48" viewBox="0 0 279 48" fill="none" xmlns="http://www.w3.org/2000/svg">
<path d="M167 30.0635L173.343 15.4662L183.857 33.4522L181.163 30.1504L167 30.0635Z" fill="#FF0022"/>
<path d="M193.154 30.2373H199.931L183.857 0.521332H178.904L175.342 9.90532L172.648 6.42977L178.817 16.6827L181.511 9.55777L193.154 30.2373Z" fill="black"/>
<path d="M0 0.608246H6.77733V29.716H0V0.608246Z" fill="black"/>
<path d="M40.1426 29.716V12.2513L31.5406 26.6749H28.4995L19.9844 12.5989V29.716H13.6415V0.608246H19.2024L30.0635 18.6811L40.8377 0.608246H46.3986L46.4855 29.716H40.1426Z" fill="black"/>
<path d="M72.7259 1.91158C74.6375 2.78047 76.1146 3.99691 77.1573 5.56091C78.1999 7.12491 78.7213 9.03646 78.7213 11.2087C78.7213 13.3809 78.1999 15.2056 77.1573 16.7696C76.1146 18.3336 74.6375 19.55 72.7259 20.4189C70.8144 21.2878 68.5553 21.7222 66.0355 21.7222H60.1271V29.716H53.3497V0.608246H66.0355C68.5553 0.608246 70.8144 1.04269 72.7259 1.91158ZM70.2062 14.858C71.2488 13.9891 71.7702 12.7727 71.7702 11.1218C71.7702 9.47091 71.2488 8.25446 70.2062 7.38557C69.1635 6.51669 67.5995 6.08224 65.6011 6.08224H60.1271V16.1613H65.6011C67.6864 16.1613 69.1635 15.7269 70.2062 14.858Z" fill="black"/>
<path d="M102.007 29.716L96.3597 21.6353H96.0121H90.1037V29.716H83.4133V0.608246H96.0121C98.6188 0.608246 100.791 1.04269 102.703 1.91158C104.614 2.78047 106.091 3.99691 107.134 5.56091C108.177 7.12491 108.698 9.03646 108.698 11.2087C108.698 13.3809 108.177 15.2056 107.134 16.7696C106.091 18.3336 104.614 19.55 102.703 20.332L109.219 29.716H102.007ZM100.27 7.38557C99.227 6.51669 97.663 6.08224 95.6646 6.08224H90.1906V16.2482H95.6646C97.663 16.2482 99.227 15.8138 100.27 14.9449C101.312 14.076 101.834 12.7727 101.834 11.2087C101.834 9.55779 101.312 8.25446 100.27 7.38557Z" fill="black"/>
<path d="M136.589 24.3289V29.716H113.998V0.608246H135.981V5.99535H120.689V12.3382H134.243V17.5516H120.689V24.3289H136.589Z" fill="black"/>
<path d="M144.844 29.2815C142.671 28.6733 140.934 27.8044 139.63 26.8486L141.889 21.8091C143.106 22.7649 144.583 23.46 146.321 23.9813C148.059 24.5026 149.796 24.8502 151.447 24.8502C153.359 24.8502 154.749 24.5895 155.705 23.9813C156.661 23.3731 157.095 22.678 157.095 21.7222C157.095 21.0271 156.834 20.4189 156.313 19.9844C155.792 19.55 155.097 19.2024 154.228 18.8549C153.359 18.5942 152.229 18.2467 150.752 17.8991C148.493 17.3778 146.755 16.8564 145.278 16.3351C143.888 15.8138 142.671 14.9449 141.629 13.8153C140.586 12.6858 140.152 11.1218 140.152 9.12333C140.152 7.47244 140.586 5.90844 141.542 4.51822C142.498 3.128 143.801 2.08533 145.713 1.21644C147.537 0.434444 149.796 0 152.49 0C154.315 0 156.139 0.260666 157.964 0.695111C159.702 1.12955 161.266 1.73778 162.656 2.60666L160.571 7.73311C157.877 6.16911 155.183 5.474 152.49 5.474C150.578 5.474 149.188 5.82155 148.319 6.42977C147.45 7.03799 146.929 7.81999 146.929 8.86266C146.929 9.90533 147.45 10.6004 148.493 11.1218C149.536 11.6431 151.1 12.0775 153.272 12.5989C155.531 13.1202 157.269 13.6415 158.746 14.1629C160.136 14.6842 161.353 15.5531 162.395 16.6827C163.438 17.8122 163.872 19.3762 163.872 21.2878C163.872 22.9386 163.438 24.5026 162.482 25.806C161.526 27.1962 160.136 28.2389 158.311 29.1078C156.487 29.8898 154.228 30.3242 151.534 30.3242C149.188 30.2373 147.016 29.8898 144.844 29.2815Z" fill="black"/>
<path d="M212.964 42.228H213.66V46.138C213.225 46.5724 212.617 46.92 212.009 47.0937C211.4 47.3544 210.705 47.4413 209.923 47.4413C208.881 47.4413 208.012 47.1806 207.143 46.7462C206.361 46.3117 205.666 45.7035 205.231 44.8346C204.797 43.9657 204.536 43.1837 204.536 42.1411C204.536 41.1853 204.797 40.2295 205.231 39.4475C205.666 38.6655 206.361 38.0573 207.143 37.536C207.925 37.1015 208.881 36.8409 209.923 36.8409C210.705 36.8409 211.4 36.9277 212.009 37.1884C212.617 37.4491 213.225 37.7966 213.66 38.2311L213.225 38.7524C212.791 38.318 212.269 37.9704 211.748 37.7966C211.227 37.6229 210.618 37.536 210.01 37.536C209.141 37.536 208.359 37.7097 207.577 38.1442C206.882 38.5786 206.274 39.1 205.926 39.7951C205.579 40.4902 205.318 41.2722 205.318 42.1411C205.318 43.01 205.492 43.792 205.926 44.4871C206.361 45.1822 206.882 45.7035 207.577 46.138C208.272 46.5724 209.054 46.7462 210.01 46.7462C211.227 46.7462 212.182 46.3986 212.964 45.7904V42.228Z" fill="black"/>
<path d="M227.475 47.3544L225.042 43.8789C224.694 43.9658 224.347 43.9658 223.999 43.9658H221.045V47.3544H220.263V37.0146H223.999C225.303 37.0146 226.345 37.3622 227.04 37.9704C227.736 38.5786 228.17 39.4475 228.17 40.4902C228.17 41.2722 227.996 41.9673 227.562 42.5755C227.127 43.0969 226.519 43.5313 225.737 43.792L228.344 47.4413H227.475V47.3544ZM223.999 43.2706C225.129 43.2706 225.911 43.01 226.519 42.5755C227.127 42.1411 227.388 41.3591 227.388 40.4902C227.388 39.6213 227.127 38.9262 226.519 38.4049C225.911 37.8835 225.129 37.7098 223.999 37.7098H221.045V43.3575H223.999V43.2706Z" fill="black"/>
<path d="M235.816 46.7462C235.034 46.3117 234.339 45.7035 233.905 44.8346C233.47 43.9657 233.21 43.1837 233.21 42.1411C233.21 41.1853 233.47 40.2295 233.905 39.4475C234.339 38.6655 235.034 38.0573 235.816 37.536C236.598 37.1015 237.554 36.8409 238.597 36.8409C239.639 36.8409 240.508 37.1015 241.377 37.536C242.159 37.9704 242.854 38.5786 243.289 39.4475C243.723 40.2295 243.984 41.0984 243.984 42.1411C243.984 43.0968 243.723 44.0526 243.289 44.8346C242.854 45.6166 242.159 46.2248 241.377 46.7462C240.595 47.1806 239.639 47.4413 238.597 47.4413C237.554 47.4413 236.598 47.1806 235.816 46.7462ZM240.856 46.138C241.551 45.7035 242.072 45.1822 242.507 44.4871C242.941 43.792 243.115 43.01 243.115 42.1411C243.115 41.2722 242.941 40.4902 242.507 39.7951C242.072 39.1 241.551 38.5786 240.856 38.1442C240.161 37.7097 239.379 37.536 238.51 37.536C237.641 37.536 236.859 37.7097 236.164 38.1442C235.469 38.5786 234.947 39.1 234.513 39.7951C234.078 40.4902 233.905 41.2722 233.905 42.1411C233.905 43.01 234.078 43.792 234.513 44.4871C234.947 45.1822 235.469 45.7035 236.164 46.138C236.859 46.5724 237.641 46.7462 238.51 46.7462C239.379 46.7462 240.161 46.4855 240.856 46.138Z" fill="black"/>
<path d="M250.761 46.3118C250.066 45.5298 249.632 44.4871 249.632 43.01V37.0146H250.414V42.9231C250.414 44.2264 250.674 45.1822 251.282 45.7904C251.891 46.3986 252.673 46.7462 253.802 46.7462C254.932 46.7462 255.714 46.3986 256.322 45.7904C256.93 45.1822 257.191 44.2264 257.191 42.9231V37.0146H257.973V43.01C257.973 44.4871 257.625 45.6166 256.843 46.3118C256.148 47.0938 255.106 47.4413 253.802 47.4413C252.499 47.4413 251.456 47.0069 250.761 46.3118Z" fill="black"/>
<path d="M271.528 37.8835C272.223 38.4918 272.657 39.3606 272.657 40.4033C272.657 41.446 272.31 42.3149 271.528 42.9231C270.746 43.5313 269.79 43.8789 268.486 43.8789H265.532V47.2675H264.75V37.0146H268.486C269.703 37.0146 270.746 37.2753 271.528 37.8835ZM271.006 42.5755C271.614 42.0542 271.875 41.446 271.875 40.4902C271.875 39.6213 271.614 38.9262 271.006 38.4049C270.398 37.8835 269.616 37.7098 268.486 37.7098H265.532V43.2706H268.486C269.529 43.2706 270.398 43.01 271.006 42.5755Z" fill="black"/>
<path d="M223.217 30.2373L217.57 22.1567H217.222H211.314V30.2373H204.536V1.12958H217.135C219.742 1.12958 221.914 1.56402 223.826 2.43291C225.737 3.3018 227.214 4.51824 228.257 6.08224C229.3 7.64624 229.821 9.55779 229.821 11.73C229.821 13.9022 229.3 15.7269 228.257 17.2909C227.214 18.8549 225.737 20.0713 223.826 20.8533L230.342 30.2373H223.217ZM221.48 7.90691C220.437 7.03802 218.873 6.60357 216.875 6.60357H211.401V16.7696H216.875C218.873 16.7696 220.437 16.3351 221.48 15.4662C222.522 14.5973 223.044 13.294 223.044 11.73C223.131 10.0791 222.609 8.86268 221.48 7.90691Z" fill="black"/>
<path d="M235.208 1.12958H241.985V30.2373H235.208V1.12958Z" fill="black"/>
<path d="M254.845 28.8471C252.412 27.5438 250.5 25.7191 249.11 23.46C247.72 21.2009 247.025 18.5942 247.025 15.7269C247.025 12.8596 247.72 10.2529 249.11 7.99379C250.5 5.73469 252.412 3.91002 254.845 2.60669C257.278 1.30336 259.971 0.608246 263.012 0.608246C266.054 0.608246 268.747 1.30336 271.18 2.60669C273.613 3.91002 275.524 5.73469 276.915 7.99379C278.305 10.2529 279 12.8596 279 15.7269C279 18.5942 278.305 21.2009 276.915 23.46C275.524 25.7191 273.613 27.5438 271.18 28.8471C268.747 30.1504 266.054 30.8456 263.012 30.8456C259.971 30.7587 257.278 30.1504 254.845 28.8471ZM267.704 23.8076C269.095 23.0256 270.137 21.896 271.006 20.5058C271.788 19.1156 272.223 17.4647 272.223 15.64C272.223 13.8153 271.788 12.2513 271.006 10.7742C270.224 9.29713 269.095 8.25446 267.704 7.47246C266.314 6.69046 264.75 6.25602 263.012 6.25602C261.275 6.25602 259.711 6.69046 258.32 7.47246C256.93 8.25446 255.888 9.38402 255.019 10.7742C254.15 12.1645 253.802 13.8153 253.802 15.64C253.802 17.4647 254.237 19.0287 255.019 20.5058C255.801 21.896 256.93 23.0256 258.32 23.8076C259.711 24.5896 261.275 25.024 263.012 25.024C264.75 25.024 266.314 24.6764 267.704 23.8076Z" fill="black"/>
</svg>
