<svg width="23" height="23" viewBox="0 0 23 23" fill="none" xmlns="http://www.w3.org/2000/svg">
<path fill-rule="evenodd" clip-rule="evenodd" d="M0 0V23H23V0H0ZM15.2156 6.32965H13.4178C13.0618 6.32965 12.7024 6.69765 12.7024 6.97143V8.80455H15.212C15.111 10.2102 14.9035 11.4956 14.9035 11.4956H12.6896V19.4615H9.39042V11.4947H7.78441V8.81411H9.39042V6.62248C9.39042 6.22173 9.30924 3.53851 12.7708 3.53851H15.2156V6.32965H15.2156Z" fill="#777777"/>
</svg>
